#********* gtk_cell_renderer_pixbuf_new  *********

<FUNCTION>
Name: gtk_cell_renderer_pixbuf_new
Params: void
Returns: GtkCellRenderer* 
Assertion: Creates a new GtkCellRendererPixbuf.
Params Values: void
Expected: GtkCellRenderer*
</FUNCTION>

<DEFINE>
GtkCellRenderer* widget;
</DEFINE>


<CODE>
widget = gtk_cell_renderer_pixbuf_new ();

if (!widget)
{
    TEST_FAIL (get_not_created_msg(), NULL); 
    return;
} 

if (!GTK_IS_CELL_RENDERER_PIXBUF (widget))
{
    TEST_FAIL (get_wrong_type_msg(), NULL); 
    return;
}

gtk_object_destroy (GTK_OBJECT (widget));
</CODE>

&gen_purpose(
            );
