#**********  gtk_hbutton_box_new () **********

<FUNCTION>
Name: gtk_hbutton_box_new
Params: void
Returns: GtkWidget*
Assertion: Creates a new horizontal button box.
Params Values: void
Expected: GtkHButtonBox*
</FUNCTION>

<DEFINE>
GtkWidget *widget;
</DEFINE>

<CODE>
widget = gtk_hbutton_box_new ();

if (!widget)
{
    TEST_FAIL (get_not_created_msg(), NULL); 
    return;
}

if (!GTK_IS_HBUTTON_BOX (widget))
{
    TEST_FAIL (get_wrong_type_msg(), NULL); 
    return;
}

/******* VISUALISATION *******/
TEST_VISUALIZE (widget);   
/******* -------------  *******/ 

gtk_widget_destroy (gtk_widget_get_toplevel (widget));

</CODE>

&gen_purpose (
             );



