#********** gtk_hpaned_new () **********

<FUNCTION>
Name: gtk_hpaned_new    
Params: void
Returns: GtkWidget*
Assertion: Create a new GtkHPaned
Params Values: void
Expected: GtkHPaned*
</FUNCTION>

<DEFINE>
GtkWidget *widget;
</DEFINE>

<CODE>
widget =  gtk_hpaned_new ();

if (!widget)
{
    TEST_FAIL (get_not_created_msg(), NULL); 
    return;
}

if (!GTK_IS_HPANED (widget))
{
    TEST_FAIL (get_wrong_type_msg(), NULL); 
    return;
}

/******* VISUALISATION *******/
TEST_VISUALIZE (widget);
/******* -------------  *******/  
gtk_widget_destroy (gtk_widget_get_toplevel (widget));

</CODE>

&gen_purpose (
              );
