#**********  gtk_hbox_new () **********

<FUNCTION>
Name: gtk_hbox_new
Params: gboolean homogeneous, gint spacing
Returns: GtkHBox*
Assertion: Creates a new GtkHBox.
Params Values: <%0%>, <%1%>
Expected: GtkHBox*
</FUNCTION>

<DEFINE>
#define HOMOGENEOUS <%0%>
#define SPACING <%1%>

GtkWidget *widget;
</DEFINE>       

<CODE>
widget = gtk_hbox_new (HOMOGENEOUS, SPACING);
if (!widget)
{
    TEST_FAIL (get_not_created_msg(), NULL); 
    return;
}

if (!GTK_IS_HBOX (widget))
{
    TEST_FAIL (get_wrong_type_msg(), NULL); 
    return;
}

/******* VISUALISATION *******/
TEST_VISUALIZE (widget);   
/******* -------------  *******/ 

gtk_widget_destroy (gtk_widget_get_toplevel (widget));

#undef HOMOGENEOUS
#undef SPACING
</CODE>

&gen_purpose (
              TRUE
              0
              );
&gen_purpose (
              FALSE
              0
              );
&gen_purpose (
              TRUE
              G_MININT
              );
&gen_purpose (
              TRUE
              -100000
              );
&gen_purpose (
              TRUE
              -1
              );
&gen_purpose (
              TRUE
              1
              );
&gen_purpose (
              TRUE
              100000
              );
&gen_purpose (
              TRUE
              G_MAXINT
              );
