#**********  gtk_input_dialog_new () **********

<FUNCTION>
Name: gtk_input_dialog_new
Params: void
Returns: GtkWidget*
Assertion: Creates a new GtkInputDialog.
Params Values: void
Expected: a newly created GtkWidget*
</FUNCTION>

<DEFINE>
GtkWidget *widget;
</DEFINE>       

<CODE>
widget = gtk_input_dialog_new ();

if (!widget)
{
    TEST_FAIL (get_not_created_msg(), NULL); 
    return;
}

if (!GTK_IS_INPUT_DIALOG (widget))
{
    TEST_FAIL (get_wrong_type_msg(), NULL); 
    return;
}

/******* VISUALISATION *******/
TEST_VISUALIZE_TOPLEVEL (widget);   
/******* -------------  *******/ 
gtk_widget_destroy (widget);

</CODE>

&gen_purpose (
             );
