#TODO
#  extend:
#   - gtk_menu_reposition () - no way to check result of function


<GLOBAL>

gint global_counter;

void global_attach_func (GtkWidget *attach_widget, GtkMenu *menu)
{
    global_counter++;
}

void global_pos_func (GtkMenu *menu,gint *x,gint *y,gboolean *push_in,gpointer user_data)
{
    global_counter++;
}
</GLOBAL>



#**********  gtk_menu_new ()  **********

<FUNCTION>
Name: gtk_menu_new
Params: void
Returns: GtkWidget*
Assertion: Creates a new GtkMenu.
Params Values: void
Expected: GtkMenu*
</FUNCTION>

 
<DEFINE>
GtkWidget *widget;
</DEFINE>	


<CODE>
widget = gtk_menu_new ();

if (!widget)
{
    TEST_FAIL (get_not_created_msg(), NULL); 
    return;
}

if (!GTK_IS_MENU (widget))
{
    TEST_FAIL (get_wrong_type_msg(), NULL); 
    return;
}

gtk_widget_show (widget);
gtk_menu_popup (GTK_MENU (widget), NULL, NULL, NULL, NULL, 0, GDK_CURRENT_TIME);

/******* VISUALISATION *******/
TEST_VISUALIZE (widget);
/******* -------------  *******/  

gtk_widget_destroy (gtk_widget_get_toplevel (widget));

</CODE>

&gen_purpose(
            );



#**********  gtk_menu_set_accel_group ()  gtk_menu_get_accel_group ()  **********

<FUNCTION>
Name: gtk_menu_set_accel_group
Params: GtkMenu *menu, GtkAccelGroup *accel_group
Returns: void
Assertion: Set the GtkAccelGroup which holds global accelerators for the menu.
Params Values: GtkMenu *menu, <%0%>
Expected: void

Name: gtk_menu_get_accel_group
Params: GtkMenu *menu
Returns: GtkAccelGroup *accel_group
Assertion: Gets the GtkAccelGroup which holds global accelerators for the menu.
Params Values: GtkMenu *menu
Expected: <%0%>
</FUNCTION>

 
<DEFINE>
#define  ACCEL_GROUP <%0%>

GtkWidget *widget;
GtkAccelGroup *accel_group;
</DEFINE>	


<CODE>
widget = gtk_menu_new ();

if (!widget)
{
    TEST_FAIL (get_not_created_msg(), NULL); 
    return;
}

if (!GTK_IS_MENU (widget))
{
    TEST_FAIL (get_wrong_type_msg(), NULL); 
    return;
}
gtk_widget_show (widget);

accel_group = ACCEL_GROUP;
gtk_menu_set_accel_group (GTK_MENU (widget), accel_group);
if (accel_group != gtk_menu_get_accel_group (GTK_MENU (widget)))
{
    TEST_FAIL ("Accel group fails", NULL);
}

gtk_menu_popup (GTK_MENU (widget), NULL, NULL, NULL, NULL, 0, GDK_CURRENT_TIME);

/******* VISUALISATION *******/
TEST_VISUALIZE (widget);
/******* -------------  *******/  

gtk_widget_destroy (gtk_widget_get_toplevel (widget));
#undef ACCEL_GROUP
</CODE>


&gen_purpose(
            gtk_accel_group_new ()
            );



#**********  gtk_menu_set_active () gtk_menu_get_active ()  **********

<FUNCTION>
Name: gtk_menu_set_active
Params: GtkMenu *menu, guint index
Returns: void
Assertion: Selects the specified menu item within the menu.
Params Values: GtkMenu *menu, <%0%>
Expected: void

Name: gtk_menu_get_active
Params: GtkMenu *menu
Returns: GtkWidget*
Assertion: Returns the selected menu item from the menu.
Params Values: GtkMenu *menu
Expected: GtkWidget*
</FUNCTION>

 
<DEFINE>
#define  COUNT <%0%>
#define  INDEX <%1%>

GtkWidget *widget;
GtkWidget* items[COUNT];
gint i;
gchar buff[100];
</DEFINE>	


<CODE>
widget = gtk_menu_new ();

if (!widget)
{
    TEST_FAIL (get_not_created_msg(), NULL); 
    return;
}

if (!GTK_IS_MENU (widget))
{
    TEST_FAIL (get_wrong_type_msg(), NULL); 
    return;
}
gtk_widget_show (widget);

for (i = 0; i < COUNT; i++) 
{
    sprintf(buff, "Item %i", i);
    items[i] = gtk_menu_item_new_with_label(buff);
    gtk_menu_append (GTK_MENU_SHELL (widget), items[i]);
    gtk_widget_show (items[i]);
}

gtk_menu_set_active(GTK_MENU (widget), INDEX);
if (items[INDEX] != gtk_menu_get_active(GTK_MENU (widget)))
{
    TEST_FAIL("Active item fails", NULL);
}
gtk_menu_popup (GTK_MENU (widget), NULL, NULL, NULL, NULL, 0, GDK_CURRENT_TIME);

/******* VISUALISATION *******/
TEST_VISUALIZE (widget);
/******* -------------  *******/  

gtk_widget_destroy (gtk_widget_get_toplevel (widget));

#undef COUNT
#undef INDEX

</CODE>


&gen_purpose(
            10
            1
            );

&gen_purpose(
            10
            5
            );

&gen_purpose(
            10
            5
            );

&gen_purpose(
            1000
            999
            );



#**********  gtk_menu_set_title () **********
<FUNCTION>
Name: gtk_menu_set_title
Params: GtkMenu *menu, const gchar *title
Returns: void
Assertion: Sets the title string for the menu.
Params Values: GtkMenu *menu, <%0%>
Expected: void
</FUNCTION>

 
<DEFINE>
#define  TITLE <%0%>

GtkWidget *widget;
gchar* real_title;
</DEFINE>	


<CODE>
widget = gtk_menu_new ();

if (!widget)
{
    TEST_FAIL (get_not_created_msg(), NULL); 
    return;
}

if (!GTK_IS_MENU (widget))
{
    TEST_FAIL (get_wrong_type_msg(), NULL); 
    return;
}

gtk_menu_set_title (GTK_MENU (widget), TITLE);
gtk_object_get (GTK_OBJECT (widget), "tearoff-title", &real_title, NULL);

gtk_widget_show (widget);

if (!TITLE)
{
    if (real_title)
    {
        TEST_FAIL ("title should be NULL but it is not", NULL);
    }

} else if (strcmp (real_title, (gchar*) TITLE)) {

    TEST_FAIL ("real_title is '%s', should be '%s'", 
               real_title, (gchar*) TITLE);
}

gtk_menu_popup (GTK_MENU (widget), NULL, NULL, NULL, NULL, 0, GDK_CURRENT_TIME);

/******* VISUALISATION *******/
TEST_VISUALIZE (widget);
/******* -------------  *******/  

gtk_widget_destroy (gtk_widget_get_toplevel (widget));

#undef TITLE

</CODE>

&gen_purpose(
             "Text"
            );

&gen_purpose(
             "abcdefghijklmnopqrstuvwxyzABCDEFGHIJKLMNOPQRSTUVWXYZ1234567890" 
            );

&gen_purpose(
             "!@#$%^&*()_+|~=\";:'?<>`/" 

&gen_purpose(
             "\b\n\t" 
            );

&gen_purpose(
             "" 
            );

&gen_purpose(
             " " 
            );

&gen_purpose(
             "   " 
            );

&gen_purpose(
             "Text"
            );

&gen_purpose(
             "\b\n\t" 
            );

&gen_purpose(
             NULL
            );



#**********  gtk_menu_get_title () **********
<FUNCTION>
Name: gtk_menu_get_title
Params: GtkMenu *menu
Returns: G_CONST_RETURN gchar *title
Assertion: Returns the title of the menu.
Params Values: GtkMenu *menu
Expected: <%0%>
</FUNCTION>

 
<DEFINE>
#define  TITLE <%0%>

GtkWidget *widget;
G_CONST_RETURN gchar* real_title;
</DEFINE>	


<CODE>
widget = gtk_menu_new ();

if (!widget)
{
    TEST_FAIL (get_not_created_msg(), NULL); 
    return;
}

if (!GTK_IS_MENU (widget))
{
    TEST_FAIL (get_wrong_type_msg(), NULL); 
    return;
}
gtk_object_set (GTK_OBJECT (widget), "tearoff-title", TITLE , NULL);
real_title = gtk_menu_get_title (GTK_MENU (widget));

gtk_widget_show (widget);

if (!TITLE)
{
    if (real_title)
    {
        TEST_FAIL ("title should be NULL but it is not", NULL);
    }

} else if (strcmp (real_title, (gchar*) TITLE)) {

    TEST_FAIL ("real_title is '%s', should be '%s'", 
               real_title, (gchar*) TITLE);
}

gtk_menu_popup (GTK_MENU (widget), NULL, NULL, NULL, NULL, 0, GDK_CURRENT_TIME);

/******* VISUALISATION *******/
TEST_VISUALIZE (widget);
/******* -------------  *******/  

gtk_widget_destroy (gtk_widget_get_toplevel (widget));

#undef TITLE

</CODE>

&gen_purpose(
             "Text"
            );

&gen_purpose(
             "abcdefghijklmnopqrstuvwxyzABCDEFGHIJKLMNOPQRSTUVWXYZ1234567890" 
            );

&gen_purpose(
             "!@#$%^&*()_+|~=\";:'?<>`/" 

&gen_purpose(
             "\b\n\t" 
            );

&gen_purpose(
             "" 
            );

&gen_purpose(
             " " 
            );

&gen_purpose(
             "   " 
            );

&gen_purpose(
             "Text"
            );

&gen_purpose(
             "\b\n\t" 
            );

&gen_purpose(
             NULL
            );


#********** gtk_menu_attach_to_widget () gtk_menu_get_attach_widget ()  **********

<FUNCTION>
Name: gtk_menu_attach_to_widget
Params: GtkMenu *menu, GtkWidget *attach_widget, GtkMenuDetachFunc detacher
Returns: void
Assertion: Attaches the menu to the widget and provides a callback function that will be invoked when the menu calls gtk_menu_detach() during its destruction.
Params Values: GtkMenu *menu, <%0%>
Expected: void

Name: gtk_menu_get_attach_widget
Params: GtkMenu *menu
Returns: GtkWidget*
Assertion: Returns the GtkWidget that the menu is attached to.
Params Values: GtkMenu *menu
Expected: GtkWidget* set by gtk_menu_attach_to_widget()
</FUNCTION>

 
<DEFINE>
#define  WIDGET <%0%>

GtkWidget *widget;
GtkWidget *attach_widget;
</DEFINE>	


<CODE>
global_counter = 0;

widget = gtk_menu_new ();
if (!widget)
{
    TEST_FAIL (get_not_created_msg(), NULL); 
    return;
}
if (!GTK_IS_MENU (widget))
{
    TEST_FAIL (get_wrong_type_msg(), NULL); 
    return;
}

attach_widget = WIDGET;
gtk_menu_attach_to_widget (GTK_MENU (widget), attach_widget, global_attach_func);

gtk_widget_show (widget);

if (attach_widget != gtk_menu_get_attach_widget (GTK_MENU (widget)))
{
    TEST_FAIL("attach_widget differs from the one was set", NULL);
}
gtk_menu_popup (GTK_MENU (widget), NULL, NULL, NULL, NULL, 0, GDK_CURRENT_TIME);

/******* VISUALISATION *******/
TEST_VISUALIZE (widget);
/******* -------------  *******/  

gtk_widget_destroy (attach_widget);
gtk_widget_destroy (gtk_widget_get_toplevel (widget));
if (global_counter != 1)
{
    TEST_FAIL 
        ("global_attach_func() was not called during attach_widget destrustion", 
         NULL);
}
#undef WIDGET

</CODE>


&gen_purpose(
            gtk_window_new (GTK_WINDOW_TOPLEVEL)
            );

&gen_purpose(
            gtk_label_new (NULL)
            );

&gen_purpose(
            gtk_hbox_new (TRUE, 3);
            );



#**********  gtk_menu_reorder_child ()  **********

<FUNCTION>
Name: gtk_menu_reorder_child 
Params: GtkMenu *menu, GtkWidget *child, gint position
Returns: void
Assertion: Moves a GtkMenuItem to a new position within the GtkMenu.
Params Values: GtkMenu *menu, GtkMenuItem*,<%0%>
Expected: void
</FUNCTION>

 
<DEFINE>
#define  POSITION <%0%>

GtkWidget *widget;
GtkWidget *child;
GList*children;
gint pos;
gint i;
</DEFINE>	


<CODE>
widget = gtk_menu_new ();
gtk_widget_show (widget);
child = gtk_menu_item_new_with_label ("Child");
gtk_widget_show (child);

gtk_menu_shell_append (GTK_MENU_SHELL (widget), child);

for (i = 0; i < 5; i++)
{
    GtkWidget* item = gtk_menu_item_new_with_label ("Item");
    gtk_widget_show (item);
    gtk_menu_shell_append (GTK_MENU_SHELL (widget), item);
}

gtk_menu_reorder_child (GTK_MENU (widget), child, POSITION);

children = GTK_MENU_SHELL (widget)->children;

pos = g_list_index (children, child);
if (pos != POSITION)
{
    TEST_FAIL ("position is '%d',should be '%d'",pos,POSITION);
}

gtk_menu_popup (GTK_MENU (widget), NULL, NULL, NULL, NULL, 0, GDK_CURRENT_TIME);

/******* VISUALISATION *******/
TEST_VISUALIZE (widget);
/******* -------------  *******/  

gtk_widget_destroy (gtk_widget_get_toplevel (widget));

#undef POSITION

</CODE>


&gen_purpose(
            0
            );

&gen_purpose(
            1
            );

&gen_purpose(
            4
            );

&gen_purpose(
            5
            );




#********** gtk_menu_detach () **********

<FUNCTION>
Name: gtk_menu_detach 
Params: GtkMenu *menu
Returns: void
Assertion: Detaches the menu from the widget to which it had been attached.
Params Values: GtkMenu *menu
Expected: void
</FUNCTION>

 
<DEFINE>
#define  WIDGET <%0%>

GtkWidget *widget;
GtkWidget *attach_widget;
GtkWidget *window;
</DEFINE>	


<CODE>
global_counter = 0;
widget = gtk_menu_new ();
gtk_widget_show (widget);

attach_widget = WIDGET;
gtk_menu_attach_to_widget (GTK_MENU (widget), attach_widget, global_attach_func);

gtk_menu_popup (GTK_MENU (widget), NULL, NULL, NULL, NULL, 0, GDK_CURRENT_TIME);

/******* VISUALISATION *******/
TEST_VISUALIZE (widget);
/******* -------------  *******/  

gtk_menu_detach (GTK_MENU (widget));
if (global_counter != 1)
{
    TEST_FAIL 
        ("global_attach_func() was not called during attach_widget destrustion", 
         NULL);
}

gtk_widget_destroy (gtk_widget_get_toplevel (widget));
gtk_widget_destroy (attach_widget);
#undef WIDGET
</CODE>

&gen_purpose(
            gtk_window_new (GTK_WINDOW_TOPLEVEL)
            );



#********** gtk_menu_popdown ()  **********

<FUNCTION>
Name: gtk_menu_popdown 
Params: GtkMenu *menu
Returns: void
Assertion: Removes the menu from the screen.
Params Values: GtkMenu *menu
Expected: void
</FUNCTION>

 
<DEFINE>

GtkWidget *menu;
GtkWidget *item;
gboolean visible;
gint i;
</DEFINE>	


<CODE>
menu = gtk_menu_new ();
gtk_widget_show (menu);
item = gtk_menu_item_new_with_label ("String");
gtk_widget_show (item);

for (i = 0; i < 5; i++)
{
    GtkWidget* item = gtk_menu_item_new_with_label ("Label");
    gtk_widget_show (item);
    gtk_menu_shell_append (GTK_MENU_SHELL (menu), item);
}

gtk_menu_popup (GTK_MENU (menu), NULL, NULL, NULL, NULL, 0, GDK_CURRENT_TIME);

/******* VISUALISATION *******/
TEST_VISUALIZE (menu);
/******* -------------  *******/  

gtk_menu_popdown (GTK_MENU (menu));

if (GTK_WIDGET_VISIBLE (menu))
{
    TEST_FAIL ("Menu is not removed",NULL);
}

gtk_widget_destroy (gtk_widget_get_toplevel (menu));
</CODE>

&gen_purpose(
            );



#**********  gtk_menu_popup ()  **********

<FUNCTION>
Name: gtk_menu_popup 
Params: GtkMenu *menu, GtkWidget *parent_menu_shell, GtkWidget *parent_menu_item, GtkMenuPositionFunc func, gpointer data, guint button, guint32 activate_time
Returns: void
Assertion: Displays a menu and makes it available for selection.
Params Values: GtkMenu*, <%0%>,<%1%>,<%5%>,<%2%>,<%3%>,<%4%>
Expected: void
</FUNCTION>

 
<DEFINE>
#define PARENT_ITEM <%0%>
#define DATA  <%1%>
#define BUTTON  <%2%>
#define TIME  <%3%>
#define FUNC  <%4%>

GtkWidget *menu;
GtkWidget *item;
GtkWidget *parent_menu_shell;
GtkWidget *parent_menu_item;
</DEFINE>	


<CODE>
menu = gtk_menu_new ();
gtk_widget_show (menu);
item = gtk_menu_item_new_with_label ("Item");
gtk_widget_show (item);
gtk_menu_shell_append (GTK_MENU_SHELL (menu), item);

parent_menu_item = PARENT_ITEM;
if (parent_menu_item)
{
    gtk_widget_show (parent_menu_item);
    gtk_menu_item_set_submenu (GTK_MENU_ITEM (parent_menu_item), menu);

    gtk_menu_popup (
                GTK_MENU (GTK_MENU_ITEM (parent_menu_item)->submenu),
                parent_menu_item->parent,
                parent_menu_item,
                FUNC,
                DATA,
                BUTTON,
                TIME
                );
} else {

    gtk_menu_popup (
                GTK_MENU (menu),
                NULL,
                NULL,
                FUNC,
                DATA,
                BUTTON,
                TIME
                );
}

if (!GTK_WIDGET_VISIBLE (menu))
{
    TEST_FAIL ("Menu is not displaied",NULL);
}

/******* VISUALISATION *******/
TEST_VISUALIZE (menu);
/******* -------------  *******/  

gtk_widget_destroy (gtk_widget_get_toplevel (menu));

#undef PARENT_ITEM 
#undef TIME
#undef DATA
#undef BUTTON
#undef FUNC

</CODE>


&gen_purpose(
            NULL
            NULL
            0
            GDK_CURRENT_TIME
            NULL
            );

&gen_purpose(
            gtk_menu_item_new_with_label ("Parent")
            NULL
            0
            GDK_CURRENT_TIME
            global_pos_func
            );

&gen_purpose(
            gtk_menu_item_new_with_label ("Parent")
            NULL
            1
            GDK_CURRENT_TIME
            global_pos_func
            );

&gen_purpose(
            gtk_menu_item_new_with_label ("Parent")
            NULL
            2
            GDK_CURRENT_TIME
            global_pos_func
            );




#********** gtk_menu_reposition () **********

<FUNCTION>
Name: gtk_menu_reposition 
Params: GtkMenu *menu
Returns: void
Assertion: Repositions the menu according to its position function.
Params Values: GtkMenu *menu
Expected: void
</FUNCTION>

 
<DEFINE>

GtkWidget *widget;
GtkWidget *child;
GtkWidget *window;
</DEFINE>	


<CODE>
widget = gtk_menu_new ();
gtk_menu_reposition (GTK_MENU (widget));

gtk_widget_show (widget);
gtk_menu_popup (GTK_MENU (widget), NULL, NULL, NULL, NULL, 0, GDK_CURRENT_TIME);

/******* VISUALISATION *******/
TEST_VISUALIZE (widget);
/******* -------------  *******/  

gtk_widget_destroy (gtk_widget_get_toplevel (widget));
</CODE>

&gen_purpose(
            );



<DISABLED>
#********** GtkMenuPositionFunc () **********

<FUNCTION>
Name: GtkMenuPositionFunc
Params: GtkMenu *menu,gint *x,gint *y,gboolean *push_in,gpointer user_data
Returns: void
Assertion: A user function supplied when calling gtk_menu_popup() which controls the positioning of the menu when it is displayed.
Params Values: GtkMenu*,gint*,gint*,gboolean*,gpointer
Expected: void
</FUNCTION>

 
<DEFINE>

GtkWidget *menu;
GtkWidget *window;
</DEFINE>	


<CODE>
global_counter = 0;

menu = gtk_menu_new ();

gtk_menu_popup (
                GTK_MENU (menu),
                NULL,
                NULL,
                global_pos_func,
                NULL,
                0,
                0
                );
if (global_counter != 1)
{
    TEST_FAIL 
        ("A user function is not supplied when calling gtk_menu_popup()", 
         NULL);
}

gtk_widget_destroy (gtk_widget_get_toplevel (menu));
</CODE>

&gen_purpose(
            );

#********** GtkMenuDetachFunc () **********

<FUNCTION>
Name: GtkMenuPositionFunc
Params: GtkWidget *attach_widget,GtkMenu *menu
Returns: void
Assertion: A user function supplied when calling gtk_menu_attach_to_widget() which will be called when the menu is later detached from the widget.
Params Values: GtkMenu*,gint*,gint*,gboolean*,gpointer
Expected: void
</FUNCTION>

 
<DEFINE>

GtkWidget *menu;
GtkWidget *window;
GtkWidget *window1;
</DEFINE>	


<CODE>
global_counter = 0;

menu = gtk_menu_new ();
window = gtk_window_new (GTK_WINDOW_TOPLEVEL);
gtk_menu_attach_to_widget(GTK_MENU (menu),window, global_attach_func);
gtk_menu_detach (GTK_MENU (menu));
if (global_counter != 1)
{
    TEST_FAIL 
        ("global_attach_func() was not called during attach_widget destrustion", 
         NULL);
}


gtk_widget_destroy (window);
</CODE>

&gen_purpose(
            );

</DISABLED>




#**********  gtk_menu_set_tearoff_state ()  **********
#**********  gtk_menu_get_tearoff_state ()  **********

<FUNCTION>
Name: gtk_menu_set_tearoff_state
Params: GtkMenu *menu, gboolean torn_off
Returns: void
Assertion: Changes the tearoff state of the menu.
Params Values: GtkMenu *menu, <%0%>
Expected: void

Name: gtk_menu_get_tearoff_state
Params: GtkMenu *menu
Returns: gboolean
Assertion: Returns whether the menu is torn off.
Params Values: GtkMenu *menu
Expected: GtkWidget*
</FUNCTION>

 
<DEFINE>
#define  STATE <%0%>

GtkWidget *widget = NULL;
gboolean real_state;
GtkWidget *owner = NULL;
</DEFINE>	


<CODE>
widget = gtk_menu_new ();

if (!widget)
{
    TEST_FAIL (get_not_created_msg(), NULL); 
    return;
}

if (!GTK_IS_MENU (widget))
{
    TEST_FAIL (get_wrong_type_msg(), NULL); 
    return;
}

if (STATE)
{
    owner = gtk_window_new (GTK_WINDOW_TOPLEVEL);
    gtk_widget_realize (owner);
    gtk_menu_attach_to_widget (GTK_MENU (widget), owner, (GtkMenuDetachFunc)global_attach_func);
} 

gtk_widget_realize (widget);
gtk_menu_set_tearoff_state (GTK_MENU (widget), STATE);

real_state = gtk_menu_get_tearoff_state (GTK_MENU (widget));
if (real_state != STATE)
{
    TEST_FAIL("real_state = %d, should be %d", real_state, STATE);
}

gtk_widget_show (widget);
gtk_menu_popup (GTK_MENU (widget), NULL, NULL, NULL, NULL, 0, GDK_CURRENT_TIME);

/******* VISUALISATION *******/
TEST_VISUALIZE (widget);
/******* -------------  *******/  

if (STATE)
{
    gtk_menu_detach (GTK_MENU (widget));
}

gtk_widget_destroy (gtk_widget_get_toplevel (widget));
if (owner)
  gtk_widget_destroy (owner);

#undef STATE
</CODE>


&gen_purpose(
            TRUE
            );

&gen_purpose(
            FALSE
            );


#********** gtk_menu_set_accel_path () **********

<FUNCTION>
Name: gtk_menu_set_accel_path
Params: GtkMenu *menu,const gchar *accel_path
Returns: void
Assertion: Sets an accelerator path for this menu from which accelerator paths for its immediate children, its menu items, can be constructed.
Params Values: GtkMenu *menu, <%0%>
Expected: void
</FUNCTION>

 
<DEFINE>
#define PATH <%0%>
#define KEY <%1%>
#define MODS <%2%>

GtkWidget *menu;
GtkWidget *widget;
GtkAccelKey key;
</DEFINE>	


<CODE>
menu = gtk_menu_new ();
if (!menu)
{
    TEST_FAIL (get_not_created_msg (), NULL); 
    return;
}

widget = gtk_menu_item_new_with_label ("Item");
if (!widget)
{
    TEST_FAIL (get_not_created_msg (), NULL); 
    return;
}

if (!GTK_IS_MENU_ITEM (widget))
{
    TEST_FAIL (get_wrong_type_msg (), NULL); 
    return;
}
gtk_widget_show (menu);

gtk_accel_map_add_entry (PATH, KEY, MODS);
gtk_menu_set_accel_path (GTK_MENU (menu), PATH);

if (!gtk_accel_map_lookup_entry (PATH, &key))
{
    TEST_FAIL ("'gtk_accel_map_lookup_entry' returns NULL", NULL);
    return;
}
if (key.accel_key != KEY)
{
    TEST_FAIL ("accel keys not equal", NULL);
    return;
}

gtk_menu_popup (GTK_MENU (menu), NULL, NULL, NULL, NULL, 0, GDK_CURRENT_TIME);


/******* VISUALISATION *******/
TEST_VISUALIZE (menu);
/******* -------------  *******/  

gtk_widget_destroy (gtk_widget_get_toplevel (menu));

#undef PATH
#undef KEY
#undef MODS

</CODE>

&gen_purpose (
            "<test>/action_A"
             GDK_A
             GDK_SHIFT_MASK
             );

&gen_purpose (
            "<test>/action_B"
             GDK_B
             GDK_SHIFT_MASK
             );

&gen_purpose (
            "<test>/action_1"
             GDK_1
             0
             );


#********** gtk_menu_set_accel_path () **********

<FUNCTION>
Name: gtk_menu_set_accel_path
Params: GtkMenu *menu,const gchar *accel_path
Returns: void
Assertion: For example, a menu containing menu items "New" and "Exit", will, after gtk_menu_set_accel_path (menu, "<Gnumeric-Sheet>/File"); has been called, assign its items the accel paths: "<Gnumeric-Sheet>/File/New" and "<Gnumeric-Sheet>/File/Exit"
Params Values: GtkMenu *menu, <%0%>
Expected: void
</FUNCTION>

 
<DEFINE>

GtkWidget *menu;
GtkWidget *widget;
GtkAccelKey key;
</DEFINE>	


<CODE>
menu = gtk_menu_new ();
gtk_widget_show (menu);

widget = gtk_menu_item_new_with_label ("New");
gtk_menu_shell_append (GTK_MENU_SHELL (menu), widget);
gtk_widget_show (widget);

widget = gtk_menu_item_new_with_label ("Exit");
gtk_menu_shell_append (GTK_MENU_SHELL (menu), widget);
gtk_widget_show (widget);

gtk_accel_map_add_entry ("<Gnumeric-Sheet>/File", GDK_A, GDK_SHIFT_MASK);
gtk_accel_map_add_entry ("<Gnumeric-Sheet>/File/New", GDK_B, GDK_SHIFT_MASK);
gtk_accel_map_add_entry ("<Gnumeric-Sheet>/File/Exit", GDK_C, GDK_SHIFT_MASK);

gtk_menu_set_accel_path (GTK_MENU (menu), "<Gnumeric-Sheet>/File");

if (!gtk_accel_map_lookup_entry ("<Gnumeric-Sheet>/File/New", &key))
{
    TEST_FAIL ("'gtk_accel_map_lookup_entry' returns NULL", NULL);
    return;
};

if (!gtk_accel_map_lookup_entry ("<Gnumeric-Sheet>/File/Exit", &key))
{
    TEST_FAIL ("'gtk_accel_map_lookup_entry' returns NULL", NULL);
    return;
};

gtk_menu_popup (GTK_MENU (menu), NULL, NULL, NULL, NULL, 0, GDK_CURRENT_TIME);


/******* VISUALISATION *******/
TEST_VISUALIZE (menu);
/******* -------------  *******/  

gtk_widget_destroy (gtk_widget_get_toplevel (menu));


</CODE>

&gen_purpose (
             );


#*********  gtk_menu_set_screen  **********
<FUNCTION>
Name:   gtk_menu_set_screen
Params: GtkMenu *menu, GdkScreen *screen
Returns: void
Assertion: Sets the GtkScreen on which the GtkMenu will be displayed.
Params Values: GtkMenu*, <%0%>
Expected: void
</FUNCTION>


<DEFINE>
#define SCREEN <%0%>

GtkWidget* widget;
GdkScreen* screen;
GdkScreen* real_screen;
</DEFINE>


<CODE>
widget = gtk_menu_new ();

if (!widget)
{
    TEST_FAIL (get_not_created_msg(), NULL); 
    return;
}

if (!GTK_IS_MENU (widget))
{
    TEST_FAIL (get_wrong_type_msg(), NULL); 
    return;
}

screen = SCREEN;

gtk_widget_show (widget);
gtk_menu_set_screen (GTK_MENU (widget), screen);
gtk_menu_popup (GTK_MENU (widget), NULL, NULL, NULL, NULL, 0, GDK_CURRENT_TIME);

/******* VISUALISATION *******/
TEST_VISUALIZE (widget); 
/******* -------------  *******/  

real_screen = gtk_widget_get_screen (widget);
if (screen != NULL)
{
    if (real_screen != screen)
    {
        TEST_FAIL ("real_screen is not the one the widget was created for", 
                   NULL);
    }
} else {
    GdkScreen* toplevel_screen;

    toplevel_screen = gtk_widget_get_screen (gtk_widget_get_toplevel (widget));
    if (real_screen != toplevel_screen)
    {
        TEST_FAIL ("real_screen is not the one the widget's toplevel was created for", NULL);
    }
}
    

gtk_widget_destroy (widget);

#undef SCREEN
</CODE>

&gen_purpose(
             gdk_screen_get_default ()
             &Ignore_List:STABLE
            );

&gen_purpose(
             gtk_widget_get_screen (gtk_button_new ())
             &Ignore_List:STABLE
            );

&gen_purpose(
             gtk_widget_get_screen (gtk_button_new_with_label ("button"))
             &Ignore_List:STABLE
            );

&gen_purpose(
             gtk_widget_get_screen (gtk_window_new (GTK_WINDOW_TOPLEVEL))
             &Ignore_List:STABLE
            );

&gen_purpose(
             gtk_widget_get_screen (gtk_calendar_new ())
             &Ignore_List:STABLE
            );

&gen_purpose(
             gtk_widget_get_screen (gtk_text_view_new ())
             &Ignore_List:STABLE
            );

&gen_purpose(
             NULL
             &Ignore_List:STABLE
            );

