#**********  gtk_separator_menu_item_new () **********
<FUNCTION>
Name: gtk_separator_menu_item_new
Params: void
Returns: GtkWidget*
Assertion: Creates a new GtkSeparatorMenuItem.
Params Values: void
Expected: GtkWidget*
</FUNCTION>
 
<DEFINE>
GtkWidget *widget;
</DEFINE>       

<CODE>
widget = gtk_separator_menu_item_new ();

if (!widget)
{
    TEST_FAIL (get_not_created_msg (), NULL); 
    return;
}

if (!GTK_IS_SEPARATOR_MENU_ITEM (widget))
{
    TEST_FAIL (get_wrong_type_msg (), NULL); 
    return;
}

/******* VISUALISATION *******/
{
    GtkWidget* menu_shell = gtk_menu_bar_new ();
    gtk_menu_shell_append (GTK_MENU_SHELL (menu_shell), widget);
    TEST_VISUALIZE (menu_shell);
}
/******* -------------  *******/  
gtk_widget_destroy (gtk_widget_get_toplevel (widget));

</CODE>

&gen_purpose (
             );
