<GLOBAL>
struct ListSort
{
  gint number1;
  gint number2;
};

struct ListSort data[] =
{
  { 3, 4 },
  { 2, 6 },
  { 0, 49 },
  { 856856, 965 },
  { 1, 34663 },
};

struct ListSort child_data[] =
{
  { 10, 149 },
  { 12, 13 },
  { 1856856, 1965 },
  { 11, 15 },
  { 14, 14 },
};

const gint NUM_TREE_ELEMS = 5;

gint global_compare_func (GtkTreeModel *model, GtkTreeIter *a, GtkTreeIter *b, gpointer data)
{
    GValue val_a = {0,};
    GValue val_b = {0,};
    guint uint_val_a;
    guint uint_val_b;

    gtk_tree_model_get_value (model, a, 0, &val_a);
    gtk_tree_model_get_value (model, b, 0, &val_b);
    uint_val_a = g_value_get_uint (&val_a);
    uint_val_b = g_value_get_uint (&val_b);
    if (uint_val_a > uint_val_b)
    {
        return (1);
    } else {
        return (0);
    }
}

</GLOBAL>

#**********  gtk_tree_model_sort_new_with_model () *********
<FUNCTION>
Name: gtk_tree_model_sort_new_with_model
Params: GtkTreeModel *child_model
Returns: GtkTreeModel*
Assertion: Creates a new GtkTreeModel, with child_model as the child_model.
Params Values: <%0%>
Expected: GtkTreeModel*
</FUNCTION>

<DEFINE>
#define CHILD_MODEL <%0%>

GtkTreeModel *model;
</DEFINE>       

<CODE>
model = gtk_tree_model_sort_new_with_model (CHILD_MODEL);

if (!model)
{
    TEST_FAIL (get_not_created_msg (), NULL); 
    return;
}

if (!GTK_IS_TREE_MODEL_SORT (model))
{
    TEST_FAIL (get_wrong_type_msg (), NULL); 
    return;
}

#undef CHILD_MODEL
</CODE>

&gen_purpose (
              GTK_TREE_MODEL (gtk_tree_store_new (1, G_TYPE_UINT))
              );

&gen_purpose (
              GTK_TREE_MODEL (gtk_tree_store_new (1, G_TYPE_INT)) 
              );

&gen_purpose (
              GTK_TREE_MODEL (gtk_tree_store_new (1, G_TYPE_CHAR))
              );

&gen_purpose (
              GTK_TREE_MODEL (gtk_tree_store_new (1, G_TYPE_DOUBLE))
              );


#**********  gtk_tree_model_sort_get_model () *********
<FUNCTION>
Name: gtk_tree_model_sort_get_model
Params: GtkTreeModel *tree_model
Returns: GtkTreeModel*
Assertion: Returns the model the GtkTreeModelSort is sorting.
Params Values: GtkTreeModel with child model set to '<%0%>'
Expected: <%0%>
</FUNCTION>

<DEFINE>
#define CHILD_MODEL <%0%>

GtkTreeModel *model;
GtkTreeModel *child_model;
GtkTreeModel *real_child_model;
</DEFINE>       

<CODE>
child_model = CHILD_MODEL;
model = gtk_tree_model_sort_new_with_model (child_model);

if (!model)
{
    TEST_FAIL (get_not_created_msg (), NULL); 
    return;
}

if (!GTK_IS_TREE_MODEL_SORT (model))
{
    TEST_FAIL (get_wrong_type_msg (), NULL); 
    return;
}

real_child_model = gtk_tree_model_sort_get_model (GTK_TREE_MODEL_SORT (model));
if (real_child_model != child_model)
{
    TEST_FAIL ("child_model differs from the one was set during the tree_model initialization", NULL);
}

#undef CHILD_MODEL
</CODE>

&gen_purpose (
              GTK_TREE_MODEL (gtk_tree_store_new (1, G_TYPE_UINT))
              );

#**********  gtk_tree_model_sort_clear_cache () *********
<FUNCTION>
Name:  gtk_tree_model_sort_clear_cache
Params: GtkTreeModelSort *tree_model_sort
Returns: void
Assertion: It clears the tree_model_sort of any cached iterators that haven't been reffed with gtk_tree_model_ref_node()'
Params Values: newly created GtkTreeModelSort*
Expected: void
</FUNCTION>

<DEFINE>
#define DEPTH <%0%>
#define INDICES <%1%>

GtkTreeStore* tree_store;
GtkTreeIter iter;
GtkTreeIter child_iter;
gint indices[] = INDICES;
guint i;
guint j;
GtkTreeModel* model;
gchar* converted_path_str;
GValue val = {0,};
GValue saved_val = {0,};
guint uint_value;
</DEFINE>       

<CODE>
tree_store = gtk_tree_store_new (1, G_TYPE_UINT);

if (!tree_store)
{
    TEST_FAIL (get_not_created_msg(), NULL); 
}

for (i = 0; i < DEPTH; i++)
{
    for (j = 0; j <= indices[i]; j++)
    {
        if (i == 0)
        {
            gtk_tree_store_append (tree_store, &iter, NULL);
        } else {
            gtk_tree_store_append (tree_store, &child_iter, &iter);            
        }
    }
    if (i != 0)
    {
        iter = child_iter;
    }
}

model = gtk_tree_model_sort_new_with_model (GTK_TREE_MODEL (tree_store));
gtk_tree_model_sort_clear_cache (GTK_TREE_MODEL_SORT (model));

#undef DEPTH
#undef INDICES
</CODE>

&gen_purpose (
              5
              {7, 3, 5, 0, 1}
             );


#**********  gtk_tree_model_sort_convert_child_path_to_path () *********
<FUNCTION>
Name:  gtk_tree_model_sort_convert_child_path_to_path
Params: GtkTreeModelSort *tree_model_sort, GtkTreePath *child_path 
Returns: GtkTreePath*
Assertion: Converts child_path to a path relative to tree_model_sort.  
Params Values: newly created GtkTreeModelSort*
Expected: a newly allocated GtkTreePath

Name:  gtk_tree_model_sort_convert_child_path_to_path
Params: GtkTreeModelSort *tree_model_sort, GtkTreePath *child_path 
Returns: GtkTreePath*
Assertion: The returned path will point to the same row in the sorted model.
Params Values: newly created GtkTreeModelSort*
Expected: a newly allocated GtkTreePath
</FUNCTION>

<DEFINE>
#define PATH_STR <%0%>
#define CORRECT_CONVERTED_PATH_STR_1 <%1%>
#define CORRECT_CONVERTED_PATH_STR_2 <%2%>
#define CORRECT_CONVERTED_PATH_STR_3 <%3%>
#define CORRECT_CONVERTED_PATH_STR_4 <%4%>

GtkTreeModel* model;
GtkTreeModel* smodel;
GtkTreeViewColumn* column0;
GtkTreeViewColumn* column1;
GtkCellRenderer* renderer;
GtkWidget* tree_view;
GtkTreeIter iter;
GtkTreeIter child_iter;
GtkTreePath* path;
GtkTreePath* converted_path;
gchar* converted_path_str;
gint i;
gint j;
</DEFINE>       

<CODE>
model = GTK_TREE_MODEL (gtk_tree_store_new (2, G_TYPE_UINT, G_TYPE_UINT));
smodel = gtk_tree_model_sort_new_with_model (GTK_TREE_MODEL (model));

if (!model)
{
    TEST_FAIL (get_not_created_msg(), NULL); 
}

for (i = 0; i < NUM_TREE_ELEMS; i++)
{
    gint j;
    
    gtk_tree_store_append (GTK_TREE_STORE (model), &iter, NULL);
    gtk_tree_store_set (GTK_TREE_STORE (model), &iter,
                        0, data[i].number1,
                        1, data[i].number2,
                        -1);
    for (j = 0; j < NUM_TREE_ELEMS; j++)
    {
        gtk_tree_store_append (GTK_TREE_STORE (model), &child_iter, &iter);
        gtk_tree_store_set (GTK_TREE_STORE (model), &child_iter,
                            0, child_data[j].number1,
                            1, child_data[j].number2,
                            -1);
    }
}

tree_view = gtk_tree_view_new_with_model (GTK_TREE_MODEL (smodel));

renderer = gtk_cell_renderer_text_new ();
column0 = gtk_tree_view_column_new_with_attributes ("Number 1", renderer,
                                                   "text", 0,
                                                   NULL);
gtk_tree_view_append_column (GTK_TREE_VIEW (tree_view), column0);
gtk_tree_view_column_set_sort_column_id (column0, 0);

renderer = gtk_cell_renderer_text_new ();
column1 = gtk_tree_view_column_new_with_attributes ("Number 2", renderer,
                                                   "text", 1,
                                                   NULL);
gtk_tree_view_append_column (GTK_TREE_VIEW (tree_view), column1);
gtk_tree_view_column_set_sort_column_id (column1, 1);

/******* VISUALISATION *******/
TEST_VISUALIZE (tree_view);
/******* -------------  *******/  

gtk_tree_view_column_set_clickable (column0, TRUE);
gtk_tree_view_column_set_clickable (column1, TRUE);

/* we emulate the first click on the second column */
gtk_tree_view_column_clicked (column1);
path = gtk_tree_path_new_from_string (PATH_STR);
converted_path = gtk_tree_model_sort_convert_child_path_to_path (GTK_TREE_MODEL_SORT (smodel), path);

if (!converted_path)
{
    TEST_FAIL ("1: converted_path is NULL", NULL);
    return;
}
converted_path_str = gtk_tree_path_to_string (converted_path);
if (strcmp (converted_path_str, CORRECT_CONVERTED_PATH_STR_1))
{
    TEST_FAIL ("1: converted_path_str = '%s', should be '%s'", 
               converted_path_str, CORRECT_CONVERTED_PATH_STR_1);
}

/* we emulate the second click on the second column */
gtk_tree_view_column_clicked (column1);
converted_path = gtk_tree_model_sort_convert_child_path_to_path (GTK_TREE_MODEL_SORT (smodel), path);

if (!converted_path)
{
    TEST_FAIL ("2: converted_path is NULL", NULL);
    return;
}
converted_path_str = gtk_tree_path_to_string (converted_path);
if (strcmp (converted_path_str, CORRECT_CONVERTED_PATH_STR_2))
{
    TEST_FAIL ("2: converted_path_str = '%s', should be '%s'", 
               converted_path_str, CORRECT_CONVERTED_PATH_STR_2);
}


/* we emulate the first click on the first column */
gtk_tree_view_column_clicked (column0);
converted_path = gtk_tree_model_sort_convert_child_path_to_path (GTK_TREE_MODEL_SORT (smodel), path);

if (!converted_path)
{
    TEST_FAIL ("3: converted_path is NULL", NULL);
    return;
}
converted_path_str = gtk_tree_path_to_string (converted_path);
if (strcmp (converted_path_str, CORRECT_CONVERTED_PATH_STR_3))
{
    TEST_FAIL ("3: converted_path_str = '%s', should be '%s'", 
               converted_path_str, CORRECT_CONVERTED_PATH_STR_3);
}

/* we emulate the second click on the first column */
gtk_tree_view_column_clicked (column0);
converted_path = gtk_tree_model_sort_convert_child_path_to_path (GTK_TREE_MODEL_SORT (smodel), path);

if (!converted_path)
{
    TEST_FAIL ("4: converted_path is NULL", NULL);
    return;
}
converted_path_str = gtk_tree_path_to_string (converted_path);
if (strcmp (converted_path_str, CORRECT_CONVERTED_PATH_STR_4))
{
    TEST_FAIL ("4: converted_path_str = '%s', should be '%s'", 
               converted_path_str, CORRECT_CONVERTED_PATH_STR_4);
}

gtk_widget_destroy (gtk_widget_get_toplevel (tree_view));

#undef PATH_STR
#undef CORRECT_CONVERTED_PATH_STR_1
#undef CORRECT_CONVERTED_PATH_STR_2
#undef CORRECT_CONVERTED_PATH_STR_3
#undef CORRECT_CONVERTED_PATH_STR_4
</CODE>

&gen_purpose (
              "0:0"
              "0:3"
              "4:1"
              "3:0"
              "1:4"
             );

&gen_purpose (
              "2:1"
              "2:0"
              "2:4"
              "0:2"
              "4:2"
             );

&gen_purpose (
              "4:4"
              "4:1"
              "0:3"
              "1:3"
              "3:1"
             );

&gen_purpose (
              "0:2"
              "0:4"
              "4:0"
              "3:4"
              "1:0"
             );


#**********  gtk_tree_model_sort_convert_child_path_to_path () *********
<FUNCTION>
Name:  gtk_tree_model_sort_convert_child_path_to_path
Params: GtkTreeModelSort *tree_model_sort, GtkTreePath *child_path 
Returns: GtkTreePath*
Assertion: If child_path isn't a valid path on the child model, then NULL is returned.'
Params Values: newly created GtkTreeModelSort*
Expected: a newly allocated GtkTreePath
</FUNCTION>

<DEFINE>
#define PATH_STR <%0%>

GtkTreeModel* model;
GtkTreeModel* smodel;
GtkTreeViewColumn* column0;
GtkTreeViewColumn* column1;
GtkCellRenderer* renderer;
GtkWidget* tree_view;
GtkTreeIter iter;
GtkTreeIter child_iter;
GtkTreePath* path;
GtkTreePath* converted_path;
gint i;
gint j;
</DEFINE>       

<CODE>
model = GTK_TREE_MODEL (gtk_tree_store_new (2, G_TYPE_UINT, G_TYPE_UINT));
smodel = gtk_tree_model_sort_new_with_model (GTK_TREE_MODEL (model));

if (!model)
{
    TEST_FAIL (get_not_created_msg(), NULL); 
}

for (i = 0; i < NUM_TREE_ELEMS; i++)
{
    gint j;
    
    gtk_tree_store_append (GTK_TREE_STORE (model), &iter, NULL);
    gtk_tree_store_set (GTK_TREE_STORE (model), &iter,
                        0, data[i].number1,
                        1, data[i].number2,
                        -1);
    for (j = 0; j < NUM_TREE_ELEMS; j++)
    {
        gtk_tree_store_append (GTK_TREE_STORE (model), &child_iter, &iter);
        gtk_tree_store_set (GTK_TREE_STORE (model), &child_iter,
                            0, child_data[j].number1,
                            1, child_data[j].number2,
                            -1);
    }
}

tree_view = gtk_tree_view_new_with_model (GTK_TREE_MODEL (smodel));

renderer = gtk_cell_renderer_text_new ();
column0 = gtk_tree_view_column_new_with_attributes ("Number 1", renderer,
                                                   "text", 0,
                                                   NULL);
gtk_tree_view_append_column (GTK_TREE_VIEW (tree_view), column0);
gtk_tree_view_column_set_sort_column_id (column0, 0);

renderer = gtk_cell_renderer_text_new ();
column1 = gtk_tree_view_column_new_with_attributes ("Number 2", renderer,
                                                   "text", 1,
                                                   NULL);
gtk_tree_view_append_column (GTK_TREE_VIEW (tree_view), column1);
gtk_tree_view_column_set_sort_column_id (column1, 1);

/******* VISUALISATION *******/
TEST_VISUALIZE (tree_view);
/******* -------------  *******/  

gtk_tree_view_column_set_clickable (column0, TRUE);
gtk_tree_view_column_set_clickable (column1, TRUE);

/* we emulate the first click on the second column */
gtk_tree_view_column_clicked (column1);
path = gtk_tree_path_new_from_string (PATH_STR);
converted_path = gtk_tree_model_sort_convert_child_path_to_path (GTK_TREE_MODEL_SORT (smodel), path);

if (converted_path)
{
    TEST_FAIL ("1: converted_path should be NULL for invalid path '%s'", PATH_STR);
    return;
}

gtk_widget_destroy (gtk_widget_get_toplevel (tree_view));

#undef PATH_STR
</CODE>

&gen_purpose (
              "0:5"
              );

&gen_purpose (
              "5:5"
              );

&gen_purpose (
              "5:0"
              );

&gen_purpose (
              "1000000:1000000"
              );

#**********  gtk_tree_model_sort_convert_path_to_child_path () *********
<FUNCTION>
Name:  gtk_tree_model_sort_convert_path_to_child_path
Params: GtkTreeModelSort *tree_model_sort, GtkTreePath *child_path 
Returns: GtkTreePath*
Assertion: Converts sorted_path to a path on the child model of tree_model_sort.
Params Values: newly created GtkTreeModelSort*
Expected: a newly allocated GtkTreePath

Name:  gtk_tree_model_sort_convert_path_to_child_path
Params: GtkTreeModelSort *tree_model_sort, GtkTreePath *child_path 
Returns: GtkTreePath*
Assertion: The returned path will point to the same location in the model not being sorted.
Params Values: newly created GtkTreeModelSort*
Expected: a newly allocated GtkTreePath
</FUNCTION>

<DEFINE>
#define PATH_STR <%0%>
#define CORRECT_CONVERTED_PATH_STR_1 <%1%>
#define CORRECT_CONVERTED_PATH_STR_2 <%2%>
#define CORRECT_CONVERTED_PATH_STR_3 <%3%>
#define CORRECT_CONVERTED_PATH_STR_4 <%4%>

GtkTreeModel* model;
GtkTreeModel* smodel;
GtkTreeViewColumn* column0;
GtkTreeViewColumn* column1;
GtkCellRenderer* renderer;
GtkWidget* tree_view;
GtkTreeIter iter;
GtkTreeIter child_iter;
GtkTreePath* path;
GtkTreePath* converted_path;
GtkTreePath* path2;
GtkTreePath* converted_path2;
gchar* converted_path_str;
gchar* converted_path_str2;
gint i;
gint j;
</DEFINE>       

<CODE>
model = GTK_TREE_MODEL (gtk_tree_store_new (2, G_TYPE_UINT, G_TYPE_UINT));
smodel = gtk_tree_model_sort_new_with_model (GTK_TREE_MODEL (model));

if (!model)
{
    TEST_FAIL (get_not_created_msg(), NULL); 
}

for (i = 0; i < NUM_TREE_ELEMS; i++)
{
    gint j;
    
    gtk_tree_store_append (GTK_TREE_STORE (model), &iter, NULL);
    gtk_tree_store_set (GTK_TREE_STORE (model), &iter,
                        0, data[i].number1,
                        1, data[i].number2,
                        -1);
    for (j = 0; j < NUM_TREE_ELEMS; j++)
    {
        gtk_tree_store_append (GTK_TREE_STORE (model), &child_iter, &iter);
        gtk_tree_store_set (GTK_TREE_STORE (model), &child_iter,
                            0, child_data[j].number1,
                            1, child_data[j].number2,
                            -1);
    }
}

tree_view = gtk_tree_view_new_with_model (GTK_TREE_MODEL (smodel));

renderer = gtk_cell_renderer_text_new ();
column0 = gtk_tree_view_column_new_with_attributes ("Number 1", renderer,
                                                   "text", 0,
                                                   NULL);
gtk_tree_view_append_column (GTK_TREE_VIEW (tree_view), column0);
gtk_tree_view_column_set_sort_column_id (column0, 0);

renderer = gtk_cell_renderer_text_new ();
column1 = gtk_tree_view_column_new_with_attributes ("Number 2", renderer,
                                                   "text", 1,
                                                   NULL);
gtk_tree_view_append_column (GTK_TREE_VIEW (tree_view), column1);
gtk_tree_view_column_set_sort_column_id (column1, 1);

gtk_tree_view_expand_all (GTK_TREE_VIEW (tree_view));

/******* VISUALISATION *******/
TEST_VISUALIZE (tree_view);
/******* -------------  *******/  

gtk_tree_view_column_set_clickable (column0, TRUE);
gtk_tree_view_column_set_clickable (column1, TRUE);

/* we emulate the first click on the second column */
gtk_tree_view_column_clicked (column1);
path = gtk_tree_path_new_from_string (PATH_STR);
converted_path = gtk_tree_model_sort_convert_path_to_child_path (GTK_TREE_MODEL_SORT (smodel), path);

if (!converted_path)
{
    TEST_FAIL ("1: converted_path is NULL", NULL);
    return;
}
converted_path_str = gtk_tree_path_to_string (converted_path);
if (strcmp (converted_path_str, CORRECT_CONVERTED_PATH_STR_1))
{
    TEST_FAIL ("1: converted_path_str = '%s', should be '%s'", 
               converted_path_str, CORRECT_CONVERTED_PATH_STR_1);
}

/* we emulate the second click on the second column */
gtk_tree_view_column_clicked (column1);
path2 = gtk_tree_path_new_from_string (PATH_STR);
converted_path2 = gtk_tree_model_sort_convert_path_to_child_path (GTK_TREE_MODEL_SORT (smodel), path2);

if (!converted_path2)
{
    TEST_FAIL ("2: converted_path is NULL", NULL);
    return;
}
converted_path_str2 = gtk_tree_path_to_string (converted_path2);
if (strcmp (converted_path_str2, CORRECT_CONVERTED_PATH_STR_2))
{
    TEST_FAIL ("2: converted_path_str = '%s', should be '%s'", 
               converted_path_str2, CORRECT_CONVERTED_PATH_STR_2);
}


/* we emulate the first click on the first column */
gtk_tree_view_column_clicked (column0);
converted_path = gtk_tree_model_sort_convert_path_to_child_path (GTK_TREE_MODEL_SORT (smodel), path);

if (!converted_path)
{
    TEST_FAIL ("3: converted_path is NULL", NULL);
    return;
}
converted_path_str = gtk_tree_path_to_string (converted_path);
if (strcmp (converted_path_str, CORRECT_CONVERTED_PATH_STR_3))
{
    TEST_FAIL ("3: converted_path_str = '%s', should be '%s'", 
               converted_path_str, CORRECT_CONVERTED_PATH_STR_3);
}

/* we emulate the second click on the first column */
gtk_tree_view_column_clicked (column0);
converted_path = gtk_tree_model_sort_convert_path_to_child_path (GTK_TREE_MODEL_SORT (smodel), path);

if (!converted_path)
{
    TEST_FAIL ("4: converted_path is NULL", NULL);
    return;
}
converted_path_str = gtk_tree_path_to_string (converted_path);
if (strcmp (converted_path_str, CORRECT_CONVERTED_PATH_STR_4))
{
    TEST_FAIL ("4: converted_path_str = '%s', should be '%s'", 
               converted_path_str, CORRECT_CONVERTED_PATH_STR_4);
}

gtk_widget_destroy (gtk_widget_get_toplevel (tree_view));

#undef PATH_STR
#undef CORRECT_CONVERTED_PATH_STR_1
#undef CORRECT_CONVERTED_PATH_STR_2
#undef CORRECT_CONVERTED_PATH_STR_3
#undef CORRECT_CONVERTED_PATH_STR_4
</CODE>

&gen_purpose (
              "0:0"
              "0:1"
              "4:2"
              "2:0"
              "3:2"
             );

&gen_purpose (
              "2:2"
              "2:3"
              "2:3"
              "1:1"
              "1:1"
             );

&gen_purpose (
              "3:3"
              "3:0"
              "1:4"
              "0:4"
              "4:3"
             );

&gen_purpose (
              "4:4"
              "4:2"
              "0:1"
              "3:2"
              "2:0"
             );

&gen_purpose (
              "0:2"
              "0:3"
              "4:3"
              "2:1"
              "3:1"
             );

&gen_purpose (
              "2:1"
              "2:4"
              "2:0"
              "1:3"
              "1:4"
             );

&gen_purpose (
              "3:0"
              "3:1"
              "1:2"
              "0:0"
              "4:2"
             );


#**********  gtk_tree_model_sort_convert_path_to_child_path () *********
<FUNCTION>
Name:  gtk_tree_model_sort_convert_path_to_child_path
Params: GtkTreeModelSort *tree_model_sort, GtkTreePath *sorted_path 
Returns: GtkTreePath*
Assertion: If sorted_path does not point to a location in the child model, NULL is returned.
Params Values: newly created GtkTreeModelSort*
Expected: NULL
</FUNCTION>

<DEFINE>
#define PATH_STR <%0%>

GtkTreeModel* model;
GtkTreeModel* smodel;
GtkTreeIter iter;
GtkTreeIter child_iter;
GtkTreeViewColumn* column0;
GtkTreeViewColumn* column1;
GtkCellRenderer* renderer;
GtkWidget* tree_view;
GtkTreePath* path;
GtkTreePath* converted_path;
gint i;
gint j;
</DEFINE>       

<CODE>
model = GTK_TREE_MODEL (gtk_tree_store_new (2, G_TYPE_UINT, G_TYPE_UINT));
smodel = gtk_tree_model_sort_new_with_model (GTK_TREE_MODEL (model));

if (!model)
{
    TEST_FAIL (get_not_created_msg(), NULL); 
}

for (i = 0; i < NUM_TREE_ELEMS; i++)
{
    gint j;
    
    gtk_tree_store_append (GTK_TREE_STORE (model), &iter, NULL);
    gtk_tree_store_set (GTK_TREE_STORE (model), &iter,
                        0, data[i].number1,
                        1, data[i].number2,
                        -1);
    for (j = 0; j < NUM_TREE_ELEMS; j++)
    {
        gtk_tree_store_append (GTK_TREE_STORE (model), &child_iter, &iter);
        gtk_tree_store_set (GTK_TREE_STORE (model), &child_iter,
                            0, child_data[j].number1,
                            1, child_data[j].number2,
                            -1);
    }
}

tree_view = gtk_tree_view_new_with_model (GTK_TREE_MODEL (smodel));

renderer = gtk_cell_renderer_text_new ();
column0 = gtk_tree_view_column_new_with_attributes ("Number 1", renderer,
                                                   "text", 0,
                                                   NULL);
gtk_tree_view_append_column (GTK_TREE_VIEW (tree_view), column0);
gtk_tree_view_column_set_sort_column_id (column0, 0);

renderer = gtk_cell_renderer_text_new ();
column1 = gtk_tree_view_column_new_with_attributes ("Number 2", renderer,
                                                   "text", 1,
                                                   NULL);
gtk_tree_view_append_column (GTK_TREE_VIEW (tree_view), column1);
gtk_tree_view_column_set_sort_column_id (column1, 1);

gtk_tree_view_expand_all (GTK_TREE_VIEW (tree_view));

/******* VISUALISATION *******/
TEST_VISUALIZE (tree_view);
/******* -------------  *******/  

gtk_tree_view_column_set_clickable (column0, TRUE);
gtk_tree_view_column_set_clickable (column1, TRUE);

/* we emulate the first click on the second column */
gtk_tree_view_column_clicked (column1);
path = gtk_tree_path_new_from_string (PATH_STR);
converted_path = gtk_tree_model_sort_convert_path_to_child_path (GTK_TREE_MODEL_SORT (smodel), path);

if (converted_path)
{
    TEST_FAIL ("1: converted_path is not NULL but should be", NULL);
    return;
}

gtk_widget_destroy (gtk_widget_get_toplevel (tree_view));

#undef PATH_STR
</CODE>

&gen_purpose (
              "0:5"
             );

&gen_purpose (
              "5:0"
             );

&gen_purpose (
              "5:5"
             );

&gen_purpose (
              "5555:5555"
             );


#**********  gtk_tree_model_sort_convert_child_iter_to_iter () *********
<FUNCTION>
Name:  gtk_tree_model_sort_convert_child_iter_to_iter
Params: GtkTreeModelSort *tree_model_sort,  GtkTreeIter *sort_iter, GtkTreeIter *child_iter
Returns: void
Assertion: Sets sort_iter to point to the row in tree_model_sort that corresponds to the row pointed at by child_iter.
Params Values: GtkTreeModelSort*, an uninitialized GtkTreeIter*, GtkTreeIter* got from path <%0%>
Expected: 
</FUNCTION>

<DEFINE>
#define PATH_STR <%0%>
#define CORRECT_CONVERTED_PATH_STR_1 <%1%>
#define CORRECT_CONVERTED_PATH_STR_2 <%2%>
#define CORRECT_CONVERTED_PATH_STR_3 <%3%>
#define CORRECT_CONVERTED_PATH_STR_4 <%4%>

GtkTreeModel* model;
GtkTreeModel* smodel;
GtkTreeViewColumn* column0;
GtkTreeViewColumn* column1;
GtkCellRenderer* renderer;
GtkWidget* tree_view;
GtkTreeIter iter;
GtkTreeIter child_iter;
GtkTreePath* path;
GtkTreePath* converted_path;
GtkTreeIter sort_iter;
GtkTreeIter ch_iter;
gchar* converted_path_str;
gint i;
gint j;
</DEFINE>       

<CODE>
model = GTK_TREE_MODEL (gtk_tree_store_new (2, G_TYPE_UINT, G_TYPE_UINT));
smodel = gtk_tree_model_sort_new_with_model (GTK_TREE_MODEL (model));

if (!model)
{
    TEST_FAIL (get_not_created_msg(), NULL); 
}

for (i = 0; i < NUM_TREE_ELEMS; i++)
{
    gint j;
    
    gtk_tree_store_append (GTK_TREE_STORE (model), &iter, NULL);
    gtk_tree_store_set (GTK_TREE_STORE (model), &iter,
                        0, data[i].number1,
                        1, data[i].number2,
                        -1);
    for (j = 0; j < NUM_TREE_ELEMS; j++)
    {
        gtk_tree_store_append (GTK_TREE_STORE (model), &child_iter, &iter);
        gtk_tree_store_set (GTK_TREE_STORE (model), &child_iter,
                            0, child_data[j].number1,
                            1, child_data[j].number2,
                            -1);
    }
}

tree_view = gtk_tree_view_new_with_model (GTK_TREE_MODEL (smodel));

renderer = gtk_cell_renderer_text_new ();
column0 = gtk_tree_view_column_new_with_attributes ("Number 1", renderer,
                                                   "text", 0,
                                                   NULL);
gtk_tree_view_append_column (GTK_TREE_VIEW (tree_view), column0);
gtk_tree_view_column_set_sort_column_id (column0, 0);

renderer = gtk_cell_renderer_text_new ();
column1 = gtk_tree_view_column_new_with_attributes ("Number 2", renderer,
                                                   "text", 1,
                                                   NULL);
gtk_tree_view_append_column (GTK_TREE_VIEW (tree_view), column1);
gtk_tree_view_column_set_sort_column_id (column1, 1);

/******* VISUALISATION *******/
TEST_VISUALIZE (tree_view);
/******* -------------  *******/  

gtk_tree_view_column_set_clickable (column0, TRUE);
gtk_tree_view_column_set_clickable (column1, TRUE);

gtk_tree_model_get_iter_from_string (model, &ch_iter, PATH_STR);

/* we emulate the first click on the second column */
gtk_tree_view_column_clicked (column1);
gtk_tree_model_sort_convert_child_iter_to_iter (GTK_TREE_MODEL_SORT (smodel),
                                                &sort_iter,
                                                &ch_iter);
converted_path = gtk_tree_model_get_path (smodel, &sort_iter);
if (!converted_path)
{
    TEST_FAIL ("1: converted_path is NULL", NULL);
    return;
}
converted_path_str = gtk_tree_path_to_string (converted_path);
if (strcmp (converted_path_str, CORRECT_CONVERTED_PATH_STR_1))
{
    TEST_FAIL ("1: converted_path_str = '%s', should be '%s'", 
               converted_path_str, CORRECT_CONVERTED_PATH_STR_1);
}

/* we emulate the second click on the second column */
gtk_tree_view_column_clicked (column1);
gtk_tree_model_sort_convert_child_iter_to_iter (GTK_TREE_MODEL_SORT (smodel),
                                                &sort_iter,
                                                &ch_iter);
converted_path = gtk_tree_model_get_path (smodel, &sort_iter);
if (!converted_path)
{
    TEST_FAIL ("2: converted_path is NULL", NULL);
    return;
}
converted_path_str = gtk_tree_path_to_string (converted_path);
if (strcmp (converted_path_str, CORRECT_CONVERTED_PATH_STR_2))
{
    TEST_FAIL ("2: converted_path_str = '%s', should be '%s'", 
               converted_path_str, CORRECT_CONVERTED_PATH_STR_2);
}

/* we emulate the first click on the first column */
gtk_tree_view_column_clicked (column0);
gtk_tree_model_sort_convert_child_iter_to_iter (GTK_TREE_MODEL_SORT (smodel),
                                                &sort_iter,
                                                &ch_iter);
converted_path = gtk_tree_model_get_path (smodel, &sort_iter);
if (!converted_path)
{
    TEST_FAIL ("3: converted_path is NULL", NULL);
    return;
}
converted_path_str = gtk_tree_path_to_string (converted_path);
if (strcmp (converted_path_str, CORRECT_CONVERTED_PATH_STR_3))
{
    TEST_FAIL ("3: converted_path_str = '%s', should be '%s'", 
               converted_path_str, CORRECT_CONVERTED_PATH_STR_3);
}


/* we emulate the second click on the first column */
gtk_tree_view_column_clicked (column0);
gtk_tree_model_sort_convert_child_iter_to_iter (GTK_TREE_MODEL_SORT (smodel),
                                                &sort_iter,
                                                &ch_iter);
converted_path = gtk_tree_model_get_path (smodel, &sort_iter);
if (!converted_path)
{
    TEST_FAIL ("4: converted_path is NULL", NULL);
    return;
}
converted_path_str = gtk_tree_path_to_string (converted_path);
if (strcmp (converted_path_str, CORRECT_CONVERTED_PATH_STR_4))
{
    TEST_FAIL ("4: converted_path_str = '%s', should be '%s'", 
               converted_path_str, CORRECT_CONVERTED_PATH_STR_4);
}

gtk_widget_destroy (gtk_widget_get_toplevel (tree_view));

#undef PATH_STR
#undef CORRECT_CONVERTED_PATH_STR_1
#undef CORRECT_CONVERTED_PATH_STR_2
#undef CORRECT_CONVERTED_PATH_STR_3
#undef CORRECT_CONVERTED_PATH_STR_4
</CODE>

&gen_purpose (
              "0:0"
              "0:3"
              "4:1"
              "3:0"
              "1:4"
             );

&gen_purpose (
              "2:1"
              "2:0"
              "2:4"
              "0:2"
              "4:2"
             );

&gen_purpose (
              "4:4"
              "4:1"
              "0:3"
              "1:3"
              "3:1"
             );

&gen_purpose (
              "0:2"
              "0:4"
              "4:0"
              "3:4"
              "1:0"
             );

#**********  gtk_tree_model_sort_convert_iter_to_child_iter () *********
<FUNCTION>
Name:  gtk_tree_model_sort_convert_iter_to_child_iter
Params: GtkTreeModelSort *tree_model_sort, GtkTreeIter *child_iter, GtkTreeIter *sorted_iter
Returns: void
Assertion: Sets child_iter to point to the row pointed to by sorted_iter.
Params Values: GtkTreeModelSort*, an uninitialized GtkTreeIter*, GtkTreeIter* got from path <%0%>
Expected: 
</FUNCTION>

<DEFINE>
#define PATH_STR <%0%>
#define CORRECT_CONVERTED_PATH_STR_1 <%1%>
#define CORRECT_CONVERTED_PATH_STR_2 <%2%>
#define CORRECT_CONVERTED_PATH_STR_3 <%3%>
#define CORRECT_CONVERTED_PATH_STR_4 <%4%>

GtkTreeModel* model;
GtkTreeModel* smodel;
GtkTreeViewColumn* column0;
GtkTreeViewColumn* column1;
GtkCellRenderer* renderer;
GtkWidget* tree_view;
GtkTreeIter iter;
GtkTreeIter child_iter;
GtkTreePath* path;
GtkTreePath* converted_path;
GtkTreeIter sort_iter1;
GtkTreeIter sort_iter2;
GtkTreeIter sort_iter3;
GtkTreeIter sort_iter4;
GtkTreeIter ch_iter1;
GtkTreeIter ch_iter2;
GtkTreeIter ch_iter3;
GtkTreeIter ch_iter4;
gchar* converted_path_str;
gint i;
gint j;
gboolean iter_valid;
</DEFINE>       

<CODE>
model = GTK_TREE_MODEL (gtk_tree_store_new (2, G_TYPE_UINT, G_TYPE_UINT));
smodel = gtk_tree_model_sort_new_with_model (GTK_TREE_MODEL (model));

if (!model)
{
    TEST_FAIL (get_not_created_msg(), NULL); 
}

for (i = 0; i < NUM_TREE_ELEMS; i++)
{
    gint j;
    
    gtk_tree_store_append (GTK_TREE_STORE (model), &iter, NULL);
    gtk_tree_store_set (GTK_TREE_STORE (model), &iter,
                        0, data[i].number1,
                        1, data[i].number2,
                        -1);
    for (j = 0; j < NUM_TREE_ELEMS; j++)
    {
        gtk_tree_store_append (GTK_TREE_STORE (model), &child_iter, &iter);
        gtk_tree_store_set (GTK_TREE_STORE (model), &child_iter,
                            0, child_data[j].number1,
                            1, child_data[j].number2,
                            -1);
    }
}

tree_view = gtk_tree_view_new_with_model (GTK_TREE_MODEL (smodel));

renderer = gtk_cell_renderer_text_new ();
column0 = gtk_tree_view_column_new_with_attributes ("Number 1", renderer,
                                                   "text", 0,
                                                   NULL);
gtk_tree_view_append_column (GTK_TREE_VIEW (tree_view), column0);
gtk_tree_view_column_set_sort_column_id (column0, 0);

renderer = gtk_cell_renderer_text_new ();
column1 = gtk_tree_view_column_new_with_attributes ("Number 2", renderer,
                                                   "text", 1,
                                                   NULL);
gtk_tree_view_append_column (GTK_TREE_VIEW (tree_view), column1);
gtk_tree_view_column_set_sort_column_id (column1, 1);

gtk_tree_view_expand_all (GTK_TREE_VIEW (tree_view));

/******* VISUALISATION *******/
TEST_VISUALIZE (tree_view);
/******* -------------  *******/  

gtk_tree_view_column_set_clickable (column0, TRUE);
gtk_tree_view_column_set_clickable (column1, TRUE);

/* we emulate the first click on the second column */
gtk_tree_view_column_clicked (column1);

iter_valid = gtk_tree_model_get_iter_from_string (smodel, &sort_iter1, PATH_STR);
if (!iter_valid)
{
    TEST_FAIL ("1: iter is invalid", FALSE);
}

gtk_tree_model_sort_convert_iter_to_child_iter (GTK_TREE_MODEL_SORT (smodel),
                                                &ch_iter1,
                                                &sort_iter1);
converted_path = gtk_tree_model_get_path (model, &ch_iter1);
if (!converted_path)
{
    TEST_FAIL ("1: converted_path is NULL", NULL);
    return;
}
converted_path_str = gtk_tree_path_to_string (converted_path);
if (strcmp (converted_path_str, CORRECT_CONVERTED_PATH_STR_1))
{
    TEST_FAIL ("1: converted_path_str = '%s', should be '%s'", 
               converted_path_str, CORRECT_CONVERTED_PATH_STR_1);
}

/* we emulate the second click on the second column */
gtk_tree_view_column_clicked (column1);

iter_valid = gtk_tree_model_get_iter_from_string (smodel, &sort_iter2, PATH_STR);
if (!iter_valid)
{
    TEST_FAIL ("2: iter is invalid", FALSE);
}
gtk_tree_model_sort_convert_iter_to_child_iter (GTK_TREE_MODEL_SORT (smodel),
                                                &ch_iter2,
                                                &sort_iter2);

converted_path = gtk_tree_model_get_path (model, &ch_iter2);
if (!converted_path)
{
    TEST_FAIL ("2: converted_path is NULL", NULL);
    return;
}
converted_path_str = gtk_tree_path_to_string (converted_path);
if (strcmp (converted_path_str, CORRECT_CONVERTED_PATH_STR_2))
{
    TEST_FAIL ("2: converted_path_str = '%s', should be '%s'", 
               converted_path_str, CORRECT_CONVERTED_PATH_STR_2);
}

/* we emulate the first click on the first column */
gtk_tree_view_column_clicked (column0);

iter_valid = gtk_tree_model_get_iter_from_string (smodel, &sort_iter3, PATH_STR);
if (!iter_valid)
{
    TEST_FAIL ("3: iter is invalid", FALSE);
}

gtk_tree_model_sort_convert_iter_to_child_iter (GTK_TREE_MODEL_SORT (smodel),
                                                &ch_iter3,
                                                &sort_iter3);
converted_path = gtk_tree_model_get_path (model, &ch_iter3);
if (!converted_path)
{
    TEST_FAIL ("3: converted_path is NULL", NULL);
    return;
}
converted_path_str = gtk_tree_path_to_string (converted_path);
if (strcmp (converted_path_str, CORRECT_CONVERTED_PATH_STR_3))
{
    TEST_FAIL ("3: converted_path_str = '%s', should be '%s'", 
               converted_path_str, CORRECT_CONVERTED_PATH_STR_3);
}


/* we emulate the second click on the first column */
gtk_tree_view_column_clicked (column0);

iter_valid = gtk_tree_model_get_iter_from_string (smodel, &sort_iter4, PATH_STR);
if (!iter_valid)
{
    TEST_FAIL ("4: iter is invalid", FALSE);
}

gtk_tree_model_sort_convert_iter_to_child_iter (GTK_TREE_MODEL_SORT (smodel),
                                                &ch_iter4,
                                                &sort_iter4);
converted_path = gtk_tree_model_get_path (model, &ch_iter4);
if (!converted_path)
{
    TEST_FAIL ("4: converted_path is NULL", NULL);
    return;
}
converted_path_str = gtk_tree_path_to_string (converted_path);
if (strcmp (converted_path_str, CORRECT_CONVERTED_PATH_STR_4))
{
    TEST_FAIL ("4: converted_path_str = '%s', should be '%s'", 
               converted_path_str, CORRECT_CONVERTED_PATH_STR_4);
}

gtk_widget_destroy (gtk_widget_get_toplevel (tree_view));

#undef PATH_STR
#undef CORRECT_CONVERTED_PATH_STR_1
#undef CORRECT_CONVERTED_PATH_STR_2
#undef CORRECT_CONVERTED_PATH_STR_3
#undef CORRECT_CONVERTED_PATH_STR_4
</CODE>

&gen_purpose (
              "0:0"
              "0:1"
              "4:2"
              "2:0"
              "3:2"
             );

&gen_purpose (
              "2:2"
              "2:3"
              "2:3"
              "1:1"
              "1:1"
             );

&gen_purpose (
              "3:3"
              "3:0"
              "1:4"
              "0:4"
              "4:3"
             );

&gen_purpose (
              "4:4"
              "4:2"
              "0:1"
              "3:2"
              "2:0"
             );

&gen_purpose (
              "0:2"
              "0:3"
              "4:3"
              "2:1"
              "3:1"
             );

&gen_purpose (
              "2:1"
              "2:4"
              "2:0"
              "1:3"
              "1:4"
             );

&gen_purpose (
              "3:0"
              "3:1"
              "1:2"
              "0:0"
              "4:2"
             );

#**********  gtk_tree_model_sort_reset_default_sort_func () *********
<FUNCTION>
Name:  gtk_tree_model_sort_reset_default_sort_func
Params: GtkTreeModelSort *tree_model_sort
Returns: void
Assertion: This resets the default sort function to be in the 'unsorted' state.
Params Values: GtkTreeModelSort*
Expected: void

Name:  gtk_tree_model_sort_reset_default_sort_func
Params: GtkTreeModelSort *tree_model_sort
Returns: void
Assertion: That is, it is in the same order as the child model.
Params Values: GtkTreeModelSort*
Expected: void
</FUNCTION>

<DEFINE>
#define PATH_STR <%0%>

GtkTreeModel* model;
GtkTreeModel* smodel;
GtkTreeViewColumn* column0;
GtkTreeViewColumn* column1;
GtkCellRenderer* renderer;
GtkWidget* tree_view;
GtkTreeIter iter;
GtkTreeIter child_iter;
GtkTreePath* path;
GtkTreePath* converted_path;
gchar* converted_path_str;
gint i;
gint j;
</DEFINE>       

<CODE>
model = GTK_TREE_MODEL (gtk_tree_store_new (2, G_TYPE_UINT, G_TYPE_UINT));
smodel = gtk_tree_model_sort_new_with_model (GTK_TREE_MODEL (model));

if (!model)
{
    TEST_FAIL (get_not_created_msg(), NULL); 
}

for (i = 0; i < NUM_TREE_ELEMS; i++)
{
    gint j;
    
    gtk_tree_store_append (GTK_TREE_STORE (model), &iter, NULL);
    gtk_tree_store_set (GTK_TREE_STORE (model), &iter,
                        0, data[i].number1,
                        1, data[i].number2,
                        -1);
    for (j = 0; j < NUM_TREE_ELEMS; j++)
    {
        gtk_tree_store_append (GTK_TREE_STORE (model), &child_iter, &iter);
        gtk_tree_store_set (GTK_TREE_STORE (model), &child_iter,
                            0, child_data[j].number1,
                            1, child_data[j].number2,
                            -1);
    }
}

tree_view = gtk_tree_view_new_with_model (GTK_TREE_MODEL (smodel));

renderer = gtk_cell_renderer_text_new ();
column0 = gtk_tree_view_column_new_with_attributes ("Number 1", renderer,
                                                   "text", 0,
                                                   NULL);
gtk_tree_view_append_column (GTK_TREE_VIEW (tree_view), column0);
gtk_tree_view_column_set_sort_column_id (column0, 0);

renderer = gtk_cell_renderer_text_new ();
column1 = gtk_tree_view_column_new_with_attributes ("Number 2", renderer,
                                                   "text", 1,
                                                   NULL);
gtk_tree_view_append_column (GTK_TREE_VIEW (tree_view), column1);
gtk_tree_view_column_set_sort_column_id (column1, 1);

/******* VISUALISATION *******/
TEST_VISUALIZE (tree_view);
/******* -------------  *******/  

gtk_tree_view_column_set_clickable (column0, TRUE);
gtk_tree_view_column_set_clickable (column1, TRUE);

path = gtk_tree_path_new_from_string (PATH_STR);

gtk_tree_model_sort_reset_default_sort_func (GTK_TREE_MODEL_SORT (smodel));
converted_path = gtk_tree_model_sort_convert_child_path_to_path (GTK_TREE_MODEL_SORT (smodel), path);

if (!converted_path)
{
    TEST_FAIL ("converted_path is NULL", NULL);
    return;
}
converted_path_str = gtk_tree_path_to_string (converted_path);
if (strcmp (converted_path_str, PATH_STR))
{
    TEST_FAIL ("3: converted_path_str = '%s', should be '%s'", 
               converted_path_str, PATH_STR);
}

gtk_widget_destroy (gtk_widget_get_toplevel (tree_view));

#undef PATH_STR
</CODE>

&gen_purpose (
              "0:0"
             );

&gen_purpose (
              "2:1"
             );

&gen_purpose (
              "4:4"
             );

&gen_purpose (
              "0:2"
             );

&gen_purpose (
              "3:4"
             );


#**********  gtk_tree_model_sort_iter_is_valid () *********
<FUNCTION>
Name: gtk_tree_model_sort_iter_is_valid
Params: GtkTreeModelSort *tree_model_sort, GtkTreeIter *iter
Returns: gboolean
Assertion: Checks if the given iter is a valid iter for this GtkTreeModelSort.
Params Values: newly created GtkTreeModelSort*, GtkTreeIter* pointed to <%0%>
Expected: FALSE in the first call and TRUE in the second
</FUNCTION>

<DEFINE>
#define PATH_STR <%0%>

GtkTreeModel* model;
GtkTreeModel* smodel;
GtkTreeViewColumn* column0;
GtkTreeViewColumn* column1;
GtkCellRenderer* renderer;
GtkWidget* tree_view;
GtkTreeIter iter;
GtkTreeIter child_iter;
GtkTreeIter test_iter1;
GtkTreeIter test_iter2;
GtkTreePath* path;
gboolean iter_valid;
gint i;
gint j;
</DEFINE>       

<CODE>
model = GTK_TREE_MODEL (gtk_tree_store_new (2, G_TYPE_UINT, G_TYPE_UINT));
smodel = gtk_tree_model_sort_new_with_model (GTK_TREE_MODEL (model));

if (!model)
{
    TEST_FAIL (get_not_created_msg(), NULL); 
}

for (i = 0; i < NUM_TREE_ELEMS; i++)
{
    gint j;
    
    gtk_tree_store_append (GTK_TREE_STORE (model), &iter, NULL);
    gtk_tree_store_set (GTK_TREE_STORE (model), &iter,
                        0, data[i].number1,
                        1, data[i].number2,
                        -1);
    for (j = 0; j < NUM_TREE_ELEMS; j++)
    {
        gtk_tree_store_append (GTK_TREE_STORE (model), &child_iter, &iter);
        gtk_tree_store_set (GTK_TREE_STORE (model), &child_iter,
                            0, child_data[j].number1,
                            1, child_data[j].number2,
                            -1);
    }
}

tree_view = gtk_tree_view_new_with_model (GTK_TREE_MODEL (smodel));

renderer = gtk_cell_renderer_text_new ();
column0 = gtk_tree_view_column_new_with_attributes ("Number 1", renderer,
                                                   "text", 0,
                                                   NULL);
gtk_tree_view_append_column (GTK_TREE_VIEW (tree_view), column0);
gtk_tree_view_column_set_sort_column_id (column0, 0);

renderer = gtk_cell_renderer_text_new ();
column1 = gtk_tree_view_column_new_with_attributes ("Number 2", renderer,
                                                   "text", 1,
                                                   NULL);
gtk_tree_view_append_column (GTK_TREE_VIEW (tree_view), column1);
gtk_tree_view_column_set_sort_column_id (column1, 1);

/******* VISUALISATION *******/
TEST_VISUALIZE (tree_view);
/******* -------------  *******/  

iter_valid = gtk_tree_model_get_iter_from_string (model, &test_iter1, PATH_STR);
if (!iter_valid)
{
    TEST_FAIL ("1: test_iter is invalid", NULL);
}

iter_valid = gtk_tree_model_get_iter_from_string (smodel, &test_iter2, PATH_STR);
if (!iter_valid)
{
    TEST_FAIL ("1: test_iter is invalid", NULL);
}

iter_valid = gtk_tree_model_sort_iter_is_valid (GTK_TREE_MODEL_SORT (smodel), 
                                                &test_iter1);
if (iter_valid != FALSE)
{
    TEST_FAIL ("3: iter_valid = TRUE, should be FALSE", NULL);
}

iter_valid = gtk_tree_model_sort_iter_is_valid (GTK_TREE_MODEL_SORT (smodel), 
                                                &test_iter2);
if (iter_valid != TRUE)
{
    TEST_FAIL ("4: iter_valid = FALSE, should be TRUE", NULL);
}

#undef PATH_STR
</CODE>


&gen_purpose (
              "0:0"
             );

&gen_purpose (
              "2:1"
             );

&gen_purpose (
              "4:4"
             );

&gen_purpose (
              "4:2"
             );

&gen_purpose (
              "0:2"
             );

&gen_purpose (
              "3:4"
             );
